[gd_scene load_steps=3 format=2]

[ext_resource path="res://ui/ScrollButtons_Theme.tres" type="Theme" id=1]
[ext_resource path="res://ui/ScrollButtons.gd" type="Script" id=2]

[node name="ScrollButtons" type="Control"]
margin_right = 40.0
margin_bottom = 40.0
theme = ExtResource( 1 )
script = ExtResource( 2 )

[node name="ScrollUpButton" type="Button" parent="."]
margin_left = 48.0
margin_right = 1872.0
margin_bottom = 51.0
focus_mode = 0
enabled_focus_mode = 0
text = "^"

[node name="ScrollDownButton" type="Button" parent="."]
margin_left = 48.0
margin_top = 1029.0
margin_right = 1872.0
margin_bottom = 1080.0
rect_pivot_offset = Vector2( 940.368, 46.3429 )
focus_mode = 0
enabled_focus_mode = 0
text = "v"

[node name="ScrollLeftButton" type="Button" parent="."]
margin_right = 48.0
margin_bottom = 1080.0
focus_mode = 0
enabled_focus_mode = 0
text = "<"

[node name="ScrollRightButton" type="Button" parent="."]
margin_left = 1872.0
margin_right = 1920.0
margin_bottom = 1080.0
focus_mode = 0
enabled_focus_mode = 0
text = ">"
[connection signal="button_down" from="ScrollUpButton" to="." method="_on_ScrollUpButton_button_down"]
[connection signal="button_up" from="ScrollUpButton" to="." method="_on_ScrollUpButton_button_up"]
[connection signal="mouse_entered" from="ScrollUpButton" to="." method="_on_ScrollButton_mouse_entered"]
[connection signal="mouse_exited" from="ScrollUpButton" to="." method="_on_ScrollButton_mouse_exited"]
[connection signal="button_down" from="ScrollDownButton" to="." method="_on_ScrollDownButton_button_down"]
[connection signal="button_up" from="ScrollDownButton" to="." method="_on_ScrollDownButton_button_up"]
[connection signal="mouse_entered" from="ScrollDownButton" to="." method="_on_ScrollButton_mouse_entered"]
[connection signal="mouse_exited" from="ScrollDownButton" to="." method="_on_ScrollButton_mouse_exited"]
[connection signal="button_down" from="ScrollLeftButton" to="." method="_on_ScrollLeftButton_button_down"]
[connection signal="button_up" from="ScrollLeftButton" to="." method="_on_ScrollLeftButton_button_up"]
[connection signal="mouse_entered" from="ScrollLeftButton" to="." method="_on_ScrollButton_mouse_entered"]
[connection signal="mouse_exited" from="ScrollLeftButton" to="." method="_on_ScrollButton_mouse_exited"]
[connection signal="button_down" from="ScrollRightButton" to="." method="_on_ScrollRightButton_button_down"]
[connection signal="button_up" from="ScrollRightButton" to="." method="_on_ScrollRightButton_button_up"]
[connection signal="mouse_entered" from="ScrollRightButton" to="." method="_on_ScrollButton_mouse_entered"]
[connection signal="mouse_exited" from="ScrollRightButton" to="." method="_on_ScrollButton_mouse_exited"]
