[gd_scene load_steps=6 format=2]

[ext_resource path="res://buildings/Building.tscn" type="PackedScene" id=1]
[ext_resource path="res://buildings/Bunker.gd" type="Script" id=2]
[ext_resource path="res://images/Bunker.png" type="Texture" id=3]

[sub_resource type="CircleShape2D" id=1]
radius = 250.0

[sub_resource type="Gradient" id=2]
colors = PoolColorArray( 0, 0, 0, 1, 1, 1, 1, 0 )

[node name="Bunker" instance=ExtResource( 1 )]
script = ExtResource( 2 )
health = 800
damage = 30
damage_radius = 400
powered_texture = ExtResource( 3 )
unpowered_texture = ExtResource( 3 )

[node name="DamageArea" parent="." index="0"]
editor/display_folded = true

[node name="Body" parent="." index="2"]
editor/display_folded = true

[node name="PowerArea" type="Area2D" parent="." index="3"]
editor/display_folded = true
monitorable = false
collision_layer = 0
collision_mask = 2

[node name="CollisionShape2D" type="CollisionShape2D" parent="PowerArea" index="0"]
shape = SubResource( 1 )

[node name="Sprite" parent="." index="5"]
texture = ExtResource( 3 )

[node name="CPUParticles2D" parent="." index="7"]
scale = Vector2( 13.44, 12.14 )
amount = 300
lifetime = 0.92
explosiveness = 1.0
randomness = 0.91
emission_shape = 2
emission_rect_extents = Vector2( 1.44, 3.04 )
spread = 45.49
color_ramp = SubResource( 2 )
hue_variation = -0.07
hue_variation_random = 0.48
anim_speed_random = 0.38
anim_offset_random = 0.22
