[gd_scene load_steps=3 format=2]

[ext_resource path="res://misc/PowerNodeManager.gd" type="Script" id=1]
[ext_resource path="res://buildings/ElectricNode.tscn" type="PackedScene" id=2]

[node name="PowerNodeManager" type="Node2D"]
script = ExtResource( 1 )
power_node_scene = ExtResource( 2 )
