[gd_scene load_steps=2 format=2]

[ext_resource path="res://misc/PowerLine.gd" type="Script" id=1]

[node name="PowerLine" type="Line2D"]
z_index = 1
points = PoolVector2Array( -0.553558, -0.320511, 87.6572, 0.414581 )
width = 5.0
default_color = Color( 0.501961, 0.815686, 1, 1 )
texture_mode = 269211552
begin_cap_mode = 2
end_cap_mode = 2
script = ExtResource( 1 )
